…
AIC appears not to change across model configurations (i.e. between `~intercept` and `~time`), but the values are in fact different. The values *do not* change across numbers of iterations, however.

    ## # A tibble: 30 x 6
    ##    k     ncpts cov       nit    aicc   aic
    ##    <fct> <fct> <fct>     <fct> <dbl> <dbl>
    ##  1 2     0L    intercept 100    39.8  39.6
    ##  2 2     0L    intercept 1000   39.8  39.6
    ##  3 2     0L    intercept 10000  39.8  39.6
    ##  4 2     0L    time      100    39.4  39.0
    ##  5 2     0L    time      1000   39.4  39.0
    ##  6 2     0L    time      10000  39.4  39.0
    ##  7 3     0L    intercept 100    64.9  64.5
    ##  8 3     0L    intercept 1000   64.9  64.5
    ##  9 3     0L    intercept 10000  64.9  64.5
    ## 10 3     0L    time      100    61.5  59.8
    ## # … with 20 more rows
…
